%YAML 1.1
%TAG !u! tag:unity3d.com,2011:
--- !u!1001 &1596674179900553689
PrefabInstance:
  m_ObjectHideFlags: 0
  serializedVersion: 2
  m_Modification:
    m_TransformParent: {fileID: 0}
    m_Modifications:
    - target: {fileID: -8679921383154817045, guid: cddf173b9b289cb4f8b8cebd0adf3a95, type: 3}
      propertyPath: m_RootOrder
      value: 0
      objectReference: {fileID: 0}
    - target: {fileID: -8679921383154817045, guid: cddf173b9b289cb4f8b8cebd0adf3a95, type: 3}
      propertyPath: m_LocalPosition.x
      value: 0
      objectReference: {fileID: 0}
    - target: {fileID: -8679921383154817045, guid: cddf173b9b289cb4f8b8cebd0adf3a95, type: 3}
      propertyPath: m_LocalPosition.y
      value: 0
      objectReference: {fileID: 0}
    - target: {fileID: -8679921383154817045, guid: cddf173b9b289cb4f8b8cebd0adf3a95, type: 3}
      propertyPath: m_LocalPosition.z
      value: 0
      objectReference: {fileID: 0}
    - target: {fileID: -8679921383154817045, guid: cddf173b9b289cb4f8b8cebd0adf3a95, type: 3}
      propertyPath: m_LocalRotation.w
      value: 0.9261946
      objectReference: {fileID: 0}
    - target: {fileID: -8679921383154817045, guid: cddf173b9b289cb4f8b8cebd0adf3a95, type: 3}
      propertyPath: m_LocalRotation.x
      value: -0
      objectReference: {fileID: 0}
    - target: {fileID: -8679921383154817045, guid: cddf173b9b289cb4f8b8cebd0adf3a95, type: 3}
      propertyPath: m_LocalRotation.y
      value: -0.37704593
      objectReference: {fileID: 0}
    - target: {fileID: -8679921383154817045, guid: cddf173b9b289cb4f8b8cebd0adf3a95, type: 3}
      propertyPath: m_LocalRotation.z
      value: -0
      objectReference: {fileID: 0}
    - target: {fileID: -8679921383154817045, guid: cddf173b9b289cb4f8b8cebd0adf3a95, type: 3}
      propertyPath: m_LocalEulerAnglesHint.x
      value: 0
      objectReference: {fileID: 0}
    - target: {fileID: -8679921383154817045, guid: cddf173b9b289cb4f8b8cebd0adf3a95, type: 3}
      propertyPath: m_LocalEulerAnglesHint.y
      value: -44.302
      objectReference: {fileID: 0}
    - target: {fileID: -8679921383154817045, guid: cddf173b9b289cb4f8b8cebd0adf3a95, type: 3}
      propertyPath: m_LocalEulerAnglesHint.z
      value: 0
      objectReference: {fileID: 0}
    - target: {fileID: 919132149155446097, guid: cddf173b9b289cb4f8b8cebd0adf3a95, type: 3}
      propertyPath: m_Name
      value: Ch30_nonPBR
      objectReference: {fileID: 0}
    - target: {fileID: 1092408308860062549, guid: cddf173b9b289cb4f8b8cebd0adf3a95, type: 3}
      propertyPath: m_LocalRotation.x
      value: 0.000011102168
      objectReference: {fileID: 0}
    - target: {fileID: 1092408308860062549, guid: cddf173b9b289cb4f8b8cebd0adf3a95, type: 3}
      propertyPath: m_LocalRotation.z
      value: -0.011702085
      objectReference: {fileID: 0}
    - target: {fileID: 5866666021909216657, guid: cddf173b9b289cb4f8b8cebd0adf3a95, type: 3}
      propertyPath: m_Controller
      value: 
      objectReference: {fileID: 9100000, guid: aa8d4bfbddc966740ae879aed41a92e2, type: 2}
    m_RemovedComponents: []
  m_SourcePrefab: {fileID: 100100000, guid: cddf173b9b289cb4f8b8cebd0adf3a95, type: 3}
