%YAML 1.1
%TAG !u! tag:unity3d.com,2011:
--- !u!1 &1377682101
GameObject:
  m_ObjectHideFlags: 0
  m_CorrespondingSourceObject: {fileID: 0}
  m_PrefabInstance: {fileID: 0}
  m_PrefabAsset: {fileID: 0}
  serializedVersion: 6
  m_Component:
  - component: {fileID: 1377682103}
  - component: {fileID: 1377682102}
  m_Layer: 0
  m_Name: Clue1Music
  m_TagString: Untagged
  m_Icon: {fileID: 5721338939258241955, guid: 0000000000000000d000000000000000, type: 0}
  m_NavMeshLayer: 0
  m_StaticEditorFlags: 0
  m_IsActive: 1
--- !u!4 &1377682103
Transform:
  m_ObjectHideFlags: 0
  m_CorrespondingSourceObject: {fileID: 0}
  m_PrefabInstance: {fileID: 0}
  m_PrefabAsset: {fileID: 0}
  m_GameObject: {fileID: 1377682101}
  m_LocalRotation: {x: -0, y: -0.71893173, z: -0, w: -0.6950807}
  m_LocalPosition: {x: 0.02668437, y: -0.02699995, z: 0.07913928}
  m_LocalScale: {x: 1, y: 1, z: 1}
  m_Children: []
  m_Father: {fileID: 5496717238193763629}
  m_RootOrder: 0
  m_LocalEulerAnglesHint: {x: 0, y: 0, z: 0}
--- !u!82 &1377682102
AudioSource:
  m_ObjectHideFlags: 0
  m_CorrespondingSourceObject: {fileID: 0}
  m_PrefabInstance: {fileID: 0}
  m_PrefabAsset: {fileID: 0}
  m_GameObject: {fileID: 1377682101}
  m_Enabled: 1
  serializedVersion: 4
  OutputAudioMixerGroup: {fileID: 0}
  m_audioClip: {fileID: 8300000, guid: b30e9c98f34edf541affd795ac3029d5, type: 3}
  m_PlayOnAwake: 1
  m_Volume: 1
  m_Pitch: 1
  Loop: 0
  Mute: 0
  Spatialize: 0
  SpatializePostEffects: 0
  Priority: 116
  DopplerLevel: 0
  MinDistance: 1.6795883
  MaxDistance: 5.5
  Pan2D: 0
  rolloffMode: 0
  BypassEffects: 0
  BypassListenerEffects: 0
  BypassReverbZones: 0
  rolloffCustomCurve:
    serializedVersion: 2
    m_Curve:
    - serializedVersion: 3
      time: 0
      value: 1
      inSlope: 0
      outSlope: 0
      tangentMode: 0
      weightedMode: 0
      inWeight: 0.33333334
      outWeight: 0.33333334
    - serializedVersion: 3
      time: 1
      value: 0
      inSlope: 0
      outSlope: 0
      tangentMode: 0
      weightedMode: 0
      inWeight: 0.33333334
      outWeight: 0.33333334
    m_PreInfinity: 2
    m_PostInfinity: 2
    m_RotationOrder: 4
  panLevelCustomCurve:
    serializedVersion: 2
    m_Curve:
    - serializedVersion: 3
      time: 0
      value: 1
      inSlope: 0
      outSlope: 0
      tangentMode: 0
      weightedMode: 0
      inWeight: 0.33333334
      outWeight: 0.33333334
    m_PreInfinity: 2
    m_PostInfinity: 2
    m_RotationOrder: 4
  spreadCustomCurve:
    serializedVersion: 2
    m_Curve:
    - serializedVersion: 3
      time: 0
      value: 0
      inSlope: 0
      outSlope: 0
      tangentMode: 0
      weightedMode: 0
      inWeight: 0.33333334
      outWeight: 0.33333334
    m_PreInfinity: 2
    m_PostInfinity: 2
    m_RotationOrder: 4
  reverbZoneMixCustomCurve:
    serializedVersion: 2
    m_Curve:
    - serializedVersion: 3
      time: 0
      value: 1
      inSlope: 0
      outSlope: 0
      tangentMode: 0
      weightedMode: 0
      inWeight: 0.33333334
      outWeight: 0.33333334
    m_PreInfinity: 2
    m_PostInfinity: 2
    m_RotationOrder: 4
--- !u!135 &245401562
SphereCollider:
  m_ObjectHideFlags: 0
  m_CorrespondingSourceObject: {fileID: 0}
  m_PrefabInstance: {fileID: 0}
  m_PrefabAsset: {fileID: 0}
  m_GameObject: {fileID: 6286509639510402543}
  m_Material: {fileID: 0}
  m_IsTrigger: 1
  m_Enabled: 1
  serializedVersion: 2
  m_Radius: 0.73
  m_Center: {x: 0.000000014901161, y: -9.313226e-10, z: 0.000000007450581}
--- !u!114 &245401561
MonoBehaviour:
  m_ObjectHideFlags: 0
  m_CorrespondingSourceObject: {fileID: 0}
  m_PrefabInstance: {fileID: 0}
  m_PrefabAsset: {fileID: 0}
  m_GameObject: {fileID: 6286509639510402543}
  m_Enabled: 1
  m_EditorHideFlags: 0
  m_Script: {fileID: 11500000, guid: 27905b274c506e0409ebf9ec212cb661, type: 3}
  m_Name: 
  m_EditorClassIdentifier: 
  itemName: BOOK
  itemIcon: {fileID: 21300000, guid: 10cb5039455a29745a31e756547dc6b4, type: 3}
--- !u!1001 &6847099190311238440
PrefabInstance:
  m_ObjectHideFlags: 0
  serializedVersion: 2
  m_Modification:
    m_TransformParent: {fileID: 0}
    m_Modifications:
    - target: {fileID: 593317751889305287, guid: 0ed228b486f4dea42a3bda58b5286a66,
        type: 3}
      propertyPath: m_Name
      value: OurBOOK
      objectReference: {fileID: 0}
    - target: {fileID: 1390921083574783493, guid: 0ed228b486f4dea42a3bda58b5286a66,
        type: 3}
      propertyPath: m_RootOrder
      value: 0
      objectReference: {fileID: 0}
    - target: {fileID: 1390921083574783493, guid: 0ed228b486f4dea42a3bda58b5286a66,
        type: 3}
      propertyPath: m_LocalPosition.x
      value: 74.254
      objectReference: {fileID: 0}
    - target: {fileID: 1390921083574783493, guid: 0ed228b486f4dea42a3bda58b5286a66,
        type: 3}
      propertyPath: m_LocalPosition.y
      value: -7.875
      objectReference: {fileID: 0}
    - target: {fileID: 1390921083574783493, guid: 0ed228b486f4dea42a3bda58b5286a66,
        type: 3}
      propertyPath: m_LocalPosition.z
      value: -12.085
      objectReference: {fileID: 0}
    - target: {fileID: 1390921083574783493, guid: 0ed228b486f4dea42a3bda58b5286a66,
        type: 3}
      propertyPath: m_LocalRotation.w
      value: -0.6950807
      objectReference: {fileID: 0}
    - target: {fileID: 1390921083574783493, guid: 0ed228b486f4dea42a3bda58b5286a66,
        type: 3}
      propertyPath: m_LocalRotation.x
      value: -0
      objectReference: {fileID: 0}
    - target: {fileID: 1390921083574783493, guid: 0ed228b486f4dea42a3bda58b5286a66,
        type: 3}
      propertyPath: m_LocalRotation.y
      value: 0.71893173
      objectReference: {fileID: 0}
    - target: {fileID: 1390921083574783493, guid: 0ed228b486f4dea42a3bda58b5286a66,
        type: 3}
      propertyPath: m_LocalRotation.z
      value: -0
      objectReference: {fileID: 0}
    - target: {fileID: 1390921083574783493, guid: 0ed228b486f4dea42a3bda58b5286a66,
        type: 3}
      propertyPath: m_LocalEulerAnglesHint.x
      value: 0
      objectReference: {fileID: 0}
    - target: {fileID: 1390921083574783493, guid: 0ed228b486f4dea42a3bda58b5286a66,
        type: 3}
      propertyPath: m_LocalEulerAnglesHint.y
      value: 268.06702
      objectReference: {fileID: 0}
    - target: {fileID: 1390921083574783493, guid: 0ed228b486f4dea42a3bda58b5286a66,
        type: 3}
      propertyPath: m_LocalEulerAnglesHint.z
      value: 0
      objectReference: {fileID: 0}
    m_RemovedComponents: []
  m_SourcePrefab: {fileID: 100100000, guid: 0ed228b486f4dea42a3bda58b5286a66, type: 3}
--- !u!1 &6286509639510402543 stripped
GameObject:
  m_CorrespondingSourceObject: {fileID: 593317751889305287, guid: 0ed228b486f4dea42a3bda58b5286a66,
    type: 3}
  m_PrefabInstance: {fileID: 6847099190311238440}
  m_PrefabAsset: {fileID: 0}
--- !u!4 &5496717238193763629 stripped
Transform:
  m_CorrespondingSourceObject: {fileID: 1390921083574783493, guid: 0ed228b486f4dea42a3bda58b5286a66,
    type: 3}
  m_PrefabInstance: {fileID: 6847099190311238440}
  m_PrefabAsset: {fileID: 0}
